[gd_scene load_steps=2 format=2]

[ext_resource path="res://src/UI/UILayer.cs" type="Script" id=1]

[node name="UILayer" type="CanvasLayer"]
script = ExtResource( 1 )

[node name="HealthBar" type="ColorRect" parent="."]
margin_left = 10.0
margin_top = 550.0
margin_right = 141.0
margin_bottom = 568.0
color = Color( 0, 0, 0, 0.588235 )
__meta__ = {
"_edit_use_anchors_": false
}

[node name="ColorRect" type="ColorRect" parent="HealthBar"]
margin_left = 2.0
margin_top = 2.0
margin_right = 129.0
margin_bottom = 16.0
color = Color( 0.694118, 0.129412, 0.129412, 1 )
__meta__ = {
"_edit_use_anchors_": false
}

[node name="OffenseMod" type="Label" parent="."]
margin_right = 40.0
margin_bottom = 14.0
text = "OM:"
__meta__ = {
"_edit_use_anchors_": false
}

[node name="DefenseMod" type="Label" parent="."]
margin_left = 60.0
margin_right = 100.0
margin_bottom = 14.0
text = "DM:"
__meta__ = {
"_edit_use_anchors_": false
}
